hann_tb.vcd
$date
	Mon Nov 20 17:23:13 2023
$end
$version
	Icarus Verilog
$end
$timescale
	1ps
$end
$scope module hann_tb $end
$var wire 8 ! out_sample [7:0] $end
$var reg 1 " audio_sample_valid $end
$var reg 1 # clk_in $end
$var reg 8 $ in_sample [7:0] $end
$var reg 1 % rst_in $end
$scope module uut $end
$var wire 1 " audio_sample_valid $end
$var wire 1 # clk_in $end
$var wire 8 & in_sample [7:0] $end
$var wire 1 % rst_in $end
$var wire 24 ' stored_coeff [23:0] $end
$var parameter 32 ( DATA_WIDTH $end
$var parameter 32 ) SAMPLE_COUNT $end
$var reg 12 * coeff_addr [11:0] $end
$var reg 1 + hanning_sample_valid $end
$var reg 8 , in_sample_pipe [7:0] $end
$var reg 8 - out_sample [7:0] $end
$var reg 32 . post_mult_shift [31:0] $end
$scope module image_BROM $end
$var wire 12 / addra [11:0] $end
$var wire 1 # clka $end
$var wire 24 0 dina [23:0] $end
$var wire 1 " ena $end
$var wire 1 1 regcea $end
$var wire 1 % rsta $end
$var wire 1 2 wea $end
$var wire 24 3 douta [23:0] $end
$var parameter 168 4 INIT_FILE $end
$var parameter 32 5 RAM_DEPTH $end
$var parameter 128 6 RAM_PERFORMANCE $end
$var parameter 32 7 RAM_WIDTH $end
$var reg 24 8 ram_data [23:0] $end
$scope function clogb2 $end
$var integer 32 9 depth [31:0] $end
$upscope $end
$scope begin output_register $end
$var reg 24 : douta_reg [23:0] $end
$upscope $end
$scope begin use_init_file $end
$upscope $end
$upscope $end
$upscope $end
$scope begin $ivl_for_loop0 $end
$var integer 32 ; i [31:0] $end
$upscope $end
$upscope $end
$enddefinitions $end
$comment Show the parameter values. $end
$dumpall
b11000 7
b1001000010010010100011101001000010111110101000001000101010100100100011001001111010100100100110101000001010011100100001101000101 6
b1000000000000 5
b11001000110000101110100011000010010111101100011011011110110010101100110011001100110100101100011011010010110010101101110011101000111001100101110011011010110010101101101 4
b1000000000000 )
b1000 (
$end
#0
$dumpvars
b0 ;
b0 :
bx 9
b0 8
b0 3
02
11
b0 0
bx /
bx .
bx -
bx ,
x+
bx *
b0 '
b0 &
0%
b0 $
0#
x"
bx !
$end
#5000
0+
1#
#10000
0#
1%
#15000
b0 *
b0 /
b0 !
b0 -
1#
#20000
0#
1"
0%
#25000
1+
bx !
bx -
b0xxxxxxxx .
b0 ,
b1 *
b1 /
1#
#30000
0#
b10000 $
b10000 &
b1 ;
#35000
b0 .
b10000 ,
b10 *
b10 /
b1010 8
1#
#40000
0#
b100000 $
b100000 &
b10 ;
#45000
b1010 '
b1010 3
b1010 :
b100111 8
b0 !
b0 -
b100000 ,
b11 *
b11 /
1#
#50000
0#
b110000 $
b110000 &
b11 ;
#55000
b110000 ,
b100 *
b100 /
b1011001 8
b100111 '
b100111 3
b100111 :
1#
#60000
0#
b1000000 $
b1000000 &
b100 ;
#65000
b1011001 '
b1011001 3
b1011001 :
b10011110 8
b1000000 ,
b101 *
b101 /
1#
#70000
0#
b1010000 $
b1010000 &
b101 ;
#75000
b1010000 ,
b110 *
b110 /
b11110111 8
b10011110 '
b10011110 3
b10011110 :
1#
#80000
0#
b1100000 $
b1100000 &
b110 ;
#85000
b11110111 '
b11110111 3
b11110111 :
b101100011 8
b1100000 ,
b111 *
b111 /
1#
#90000
0#
b1110000 $
b1110000 &
b111 ;
#95000
b1110000 ,
b1000 *
b1000 /
b111100100 8
b101100011 '
b101100011 3
b101100011 :
1#
#100000
0#
b10000000 $
b10000000 &
b1000 ;
#105000
b111100100 '
b111100100 3
b111100100 :
b1001111000 8
b10000000 ,
b1001 *
b1001 /
1#
#110000
0#
b10010000 $
b10010000 &
b1001 ;
#115000
b11111111 .
b10010000 ,
b1010 *
b1010 /
b1100100000 8
b1001111000 '
b1001111000 3
b1001111000 :
1#
#120000
0#
b10100000 $
b10100000 &
b1010 ;
#125000
b1100100000 '
b1100100000 3
b1100100000 :
b1111011011 8
b11111111 !
b11111111 -
b10100000 ,
b1011 *
b1011 /
1#
#130000
0#
b10110000 $
b10110000 &
b1011 ;
#135000
b10110000 ,
b1100 *
b1100 /
b10010101011 8
b1111011011 '
b1111011011 3
b1111011011 :
1#
#140000
0#
b11000000 $
b11000000 &
b1100 ;
#145000
b10010101011 '
b10010101011 3
b10010101011 :
b10110001110 8
b11000000 ,
b1101 *
b1101 /
1#
#150000
0#
b11010000 $
b11010000 &
b1101 ;
#155000
b11010000 ,
b1110 *
b1110 /
b11010000101 8
b10110001110 '
b10110001110 3
b10110001110 :
1#
#160000
0#
b11100000 $
b11100000 &
b1110 ;
#165000
b11010000101 '
b11010000101 3
b11010000101 :
b11110001111 8
b11100000 ,
b1111 *
b1111 /
1#
#170000
0#
b11110000 $
b11110000 &
b1111 ;
#175000
b11110000 ,
b10000 *
b10000 /
b100010101110 8
b11110001111 '
b11110001111 3
b11110001111 :
1#
#180000
0#
b0 $
b0 &
b10000 ;
#185000
b100010101110 '
b100010101110 3
b100010101110 :
b100111100000 8
b0 ,
b10001 *
b10001 /
1#
#190000
0#
b10000 $
b10000 &
b10001 ;
#195000
b0 .
b10000 ,
b10010 *
b10010 /
b101100100110 8
b100111100000 '
b100111100000 3
b100111100000 :
1#
#200000
0#
b100000 $
b100000 &
b10010 ;
#205000
b101100100110 '
b101100100110 3
b101100100110 :
b110001111111 8
b0 !
b0 -
b100000 ,
b10011 *
b10011 /
1#
#210000
0#
b110000 $
b110000 &
b10011 ;
#215000
b110000 ,
b10100 *
b10100 /
b110111101100 8
b110001111111 '
b110001111111 3
b110001111111 :
1#
#220000
0#
b1000000 $
b1000000 &
b10100 ;
#225000
b110111101100 '
b110111101100 3
b110111101100 :
b111101101101 8
b1000000 ,
b10101 *
b10101 /
1#
#230000
0#
b1010000 $
b1010000 &
b10101 ;
#235000
b1010000 ,
b10110 *
b10110 /
b1000100000010 8
b111101101101 '
b111101101101 3
b111101101101 :
1#
#240000
0#
b1100000 $
b1100000 &
b10110 ;
#245000
b1000100000010 '
b1000100000010 3
b1000100000010 :
b1001010101011 8
b1100000 ,
b10111 *
b10111 /
1#
#250000
0#
b1110000 $
b1110000 &
b10111 ;
#255000
b1110000 ,
b11000 *
b11000 /
b1010001100111 8
b1001010101011 '
b1001010101011 3
b1001010101011 :
1#
#260000
0#
b10000000 $
b10000000 &
b11000 ;
#265000
b1010001100111 '
b1010001100111 3
b1010001100111 :
b1011000110111 8
b10000000 ,
b11001 *
b11001 /
1#
#270000
0#
b10010000 $
b10010000 &
b11001 ;
#275000
b11111111 .
b10010000 ,
b11010 *
b11010 /
b1100000011011 8
b1011000110111 '
b1011000110111 3
b1011000110111 :
1#
#280000
0#
b10100000 $
b10100000 &
b11010 ;
#285000
b1100000011011 '
b1100000011011 3
b1100000011011 :
b1101000010010 8
b11111111 !
b11111111 -
b10100000 ,
b11011 *
b11011 /
1#
#290000
0#
b10110000 $
b10110000 &
b11011 ;
#295000
b10110000 ,
b11100 *
b11100 /
b1110000011101 8
b1101000010010 '
b1101000010010 3
b1101000010010 :
1#
#300000
0#
b11000000 $
b11000000 &
b11100 ;
#305000
b1110000011101 '
b1110000011101 3
b1110000011101 :
b1111000111100 8
b11000000 ,
b11101 *
b11101 /
1#
#310000
0#
b11010000 $
b11010000 &
b11101 ;
#315000
b11010000 ,
b11110 *
b11110 /
b10000001101111 8
b1111000111100 '
b1111000111100 3
b1111000111100 :
1#
#320000
0#
b11100000 $
b11100000 &
b11110 ;
#325000
b10000001101111 '
b10000001101111 3
b10000001101111 :
b10001010110101 8
b11100000 ,
b11111 *
b11111 /
1#
#330000
0#
b11110000 $
b11110000 &
b11111 ;
#335000
b11110000 ,
b100000 *
b100000 /
b10010100010000 8
b10001010110101 '
b10001010110101 3
b10001010110101 :
1#
#340000
0#
b0 $
b0 &
b100000 ;
#345000
b10010100010000 '
b10010100010000 3
b10010100010000 :
b10011101111101 8
b0 ,
b100001 *
b100001 /
1#
#350000
0#
b10000 $
b10000 &
b100001 ;
#355000
b0 .
b10000 ,
b100010 *
b100010 /
b10100111111111 8
b10011101111101 '
b10011101111101 3
b10011101111101 :
1#
#360000
0#
b100000 $
b100000 &
b100010 ;
#365000
b10100111111111 '
b10100111111111 3
b10100111111111 :
b10110010010100 8
b0 !
b0 -
b100000 ,
b100011 *
b100011 /
1#
#370000
0#
b110000 $
b110000 &
b100011 ;
#375000
b110000 ,
b100100 *
b100100 /
b10111100111101 8
b10110010010100 '
b10110010010100 3
b10110010010100 :
1#
#380000
0#
b1000000 $
b1000000 &
b100100 ;
#385000
b10111100111101 '
b10111100111101 3
b10111100111101 :
b11000111111010 8
b1000000 ,
b100101 *
b100101 /
1#
#390000
0#
b1010000 $
b1010000 &
b100101 ;
#395000
b1010000 ,
b100110 *
b100110 /
b11010011001010 8
b11000111111010 '
b11000111111010 3
b11000111111010 :
1#
#400000
0#
b1100000 $
b1100000 &
b100110 ;
#405000
b11010011001010 '
b11010011001010 3
b11010011001010 :
b11011110101111 8
b1100000 ,
b100111 *
b100111 /
1#
#410000
0#
b1110000 $
b1110000 &
b100111 ;
#415000
b1110000 ,
b101000 *
b101000 /
b11101010100111 8
b11011110101111 '
b11011110101111 3
b11011110101111 :
1#
#420000
0#
b10000000 $
b10000000 &
b101000 ;
#425000
b11101010100111 '
b11101010100111 3
b11101010100111 :
b11110110110010 8
b10000000 ,
b101001 *
b101001 /
1#
#430000
0#
b10010000 $
b10010000 &
b101001 ;
#435000
b11111111 .
b10010000 ,
b101010 *
b101010 /
b100000011010001 8
b11110110110010 '
b11110110110010 3
b11110110110010 :
1#
#440000
0#
b10100000 $
b10100000 &
b101010 ;
#445000
b100000011010001 '
b100000011010001 3
b100000011010001 :
b100010000000100 8
b11111111 !
b11111111 -
b10100000 ,
b101011 *
b101011 /
1#
#450000
0#
b10110000 $
b10110000 &
b101011 ;
#455000
b10110000 ,
b101100 *
b101100 /
b100011101001011 8
b100010000000100 '
b100010000000100 3
b100010000000100 :
1#
#460000
0#
b11000000 $
b11000000 &
b101100 ;
#465000
b100011101001011 '
b100011101001011 3
b100011101001011 :
b100101010100110 8
b11000000 ,
b101101 *
b101101 /
1#
#470000
0#
b11010000 $
b11010000 &
b101101 ;
#475000
b11010000 ,
b101110 *
b101110 /
b100111000010100 8
b100101010100110 '
b100101010100110 3
b100101010100110 :
1#
#480000
0#
b11100000 $
b11100000 &
b101110 ;
#485000
b100111000010100 '
b100111000010100 3
b100111000010100 :
b101000110010110 8
b11100000 ,
b101111 *
b101111 /
1#
#490000
0#
b11110000 $
b11110000 &
b101111 ;
#495000
b11110000 ,
b110000 *
b110000 /
b101010100101011 8
b101000110010110 '
b101000110010110 3
b101000110010110 :
1#
#500000
0#
b0 $
b0 &
b110000 ;
#505000
b101010100101011 '
b101010100101011 3
b101010100101011 :
b101100011010100 8
b0 ,
b110001 *
b110001 /
1#
#510000
0#
b10000 $
b10000 &
b110001 ;
#515000
b0 .
b10000 ,
b110010 *
b110010 /
b101110010010001 8
b101100011010100 '
b101100011010100 3
b101100011010100 :
1#
#520000
0#
b100000 $
b100000 &
b110010 ;
#525000
b101110010010001 '
b101110010010001 3
b101110010010001 :
b110000001100010 8
b0 !
b0 -
b100000 ,
b110011 *
b110011 /
1#
#530000
0#
b110000 $
b110000 &
b110011 ;
#535000
b110000 ,
b110100 *
b110100 /
b110010001000110 8
b110000001100010 '
b110000001100010 3
b110000001100010 :
1#
#540000
0#
b1000000 $
b1000000 &
b110100 ;
#545000
b110010001000110 '
b110010001000110 3
b110010001000110 :
b110100000111110 8
b1000000 ,
b110101 *
b110101 /
1#
#550000
0#
b1010000 $
b1010000 &
b110101 ;
#555000
b1010000 ,
b110110 *
b110110 /
b110110001001010 8
b110100000111110 '
b110100000111110 3
b110100000111110 :
1#
#560000
0#
b1100000 $
b1100000 &
b110110 ;
#565000
b110110001001010 '
b110110001001010 3
b110110001001010 :
b111000001101001 8
b1100000 ,
b110111 *
b110111 /
1#
#570000
0#
b1110000 $
b1110000 &
b110111 ;
#575000
b1110000 ,
b111000 *
b111000 /
b111010010011100 8
b111000001101001 '
b111000001101001 3
b111000001101001 :
1#
#580000
0#
b10000000 $
b10000000 &
b111000 ;
#585000
b111010010011100 '
b111010010011100 3
b111010010011100 :
b111100011100011 8
b10000000 ,
b111001 *
b111001 /
1#
#590000
0#
b10010000 $
b10010000 &
b111001 ;
#595000
b11111111 .
b10010000 ,
b111010 *
b111010 /
b111110100111110 8
b111100011100011 '
b111100011100011 3
b111100011100011 :
1#
#600000
0#
b10100000 $
b10100000 &
b111010 ;
#605000
b111110100111110 '
b111110100111110 3
b111110100111110 :
b1000000110101100 8
b11111111 !
b11111111 -
b10100000 ,
b111011 *
b111011 /
1#
#610000
0#
b10110000 $
b10110000 &
b111011 ;
#615000
b10110000 ,
b111100 *
b111100 /
b1000011000101101 8
b1000000110101100 '
b1000000110101100 3
b1000000110101100 :
1#
#620000
0#
b11000000 $
b11000000 &
b111100 ;
#625000
b1000011000101101 '
b1000011000101101 3
b1000011000101101 :
b1000101011000011 8
b11000000 ,
b111101 *
b111101 /
1#
#630000
0#
b11010000 $
b11010000 &
b111101 ;
#635000
b11010000 ,
b111110 *
b111110 /
b1000111101101100 8
b1000101011000011 '
b1000101011000011 3
b1000101011000011 :
1#
#640000
0#
b11100000 $
b11100000 &
b111110 ;
#645000
b1000111101101100 '
b1000111101101100 3
b1000111101101100 :
b1001010000101001 8
b11100000 ,
b111111 *
b111111 /
1#
#650000
0#
b11110000 $
b11110000 &
b111111 ;
#655000
b11110000 ,
b1000000 *
b1000000 /
b1001100011111001 8
b1001010000101001 '
b1001010000101001 3
b1001010000101001 :
1#
#660000
0#
b0 $
b0 &
b1000000 ;
#665000
b1001100011111001 '
b1001100011111001 3
b1001100011111001 :
b1001110111011101 8
b0 ,
b1000001 *
b1000001 /
1#
#670000
0#
b10000 $
b10000 &
b1000001 ;
#675000
b0 .
b10000 ,
b1000010 *
b1000010 /
b1010001011010101 8
b1001110111011101 '
b1001110111011101 3
b1001110111011101 :
1#
#680000
0#
b100000 $
b100000 &
b1000010 ;
#685000
b1010001011010101 '
b1010001011010101 3
b1010001011010101 :
b1010011111100000 8
b0 !
b0 -
b100000 ,
b1000011 *
b1000011 /
1#
#690000
0#
b110000 $
b110000 &
b1000011 ;
#695000
b110000 ,
b1000100 *
b1000100 /
b1010110011111111 8
b1010011111100000 '
b1010011111100000 3
b1010011111100000 :
1#
#700000
0#
b1000000 $
b1000000 &
b1000100 ;
#705000
b1010110011111111 '
b1010110011111111 3
b1010110011111111 :
b1011001000110010 8
b1000000 ,
b1000101 *
b1000101 /
1#
#710000
0#
b1010000 $
b1010000 &
b1000101 ;
#715000
b1010000 ,
b1000110 *
b1000110 /
b1011011101111000 8
b1011001000110010 '
b1011001000110010 3
b1011001000110010 :
1#
#720000
0#
b1100000 $
b1100000 &
b1000110 ;
#725000
b1011011101111000 '
b1011011101111000 3
b1011011101111000 :
b1011110011010010 8
b1100000 ,
b1000111 *
b1000111 /
1#
#730000
0#
b1110000 $
b1110000 &
b1000111 ;
#735000
b1110000 ,
b1001000 *
b1001000 /
b1100001001000000 8
b1011110011010010 '
b1011110011010010 3
b1011110011010010 :
1#
#740000
0#
b10000000 $
b10000000 &
b1001000 ;
#745000
b1100001001000000 '
b1100001001000000 3
b1100001001000000 :
b1100011111000001 8
b10000000 ,
b1001001 *
b1001001 /
1#
#750000
0#
b10010000 $
b10010000 &
b1001001 ;
#755000
b11111111 .
b10010000 ,
b1001010 *
b1001010 /
b1100110101010110 8
b1100011111000001 '
b1100011111000001 3
b1100011111000001 :
1#
#760000
0#
b10100000 $
b10100000 &
b1001010 ;
#765000
b1100110101010110 '
b1100110101010110 3
b1100110101010110 :
b1101001011111110 8
b11111111 !
b11111111 -
b10100000 ,
b1001011 *
b1001011 /
1#
#770000
0#
b10110000 $
b10110000 &
b1001011 ;
#775000
b10110000 ,
b1001100 *
b1001100 /
b1101100010111010 8
b1101001011111110 '
b1101001011111110 3
b1101001011111110 :
1#
#780000
0#
b11000000 $
b11000000 &
b1001100 ;
#785000
b1101100010111010 '
b1101100010111010 3
b1101100010111010 :
b1101111010001010 8
b11000000 ,
b1001101 *
b1001101 /
1#
#790000
0#
b11010000 $
b11010000 &
b1001101 ;
#795000
b11010000 ,
b1001110 *
b1001110 /
b1110010001101101 8
b1101111010001010 '
b1101111010001010 3
b1101111010001010 :
1#
#800000
0#
b11100000 $
b11100000 &
b1001110 ;
#805000
b1110010001101101 '
b1110010001101101 3
b1110010001101101 :
b1110101001100100 8
b11100000 ,
b1001111 *
b1001111 /
1#
#810000
0#
b11110000 $
b11110000 &
b1001111 ;
#815000
b11110000 ,
b1010000 *
b1010000 /
b1111000001101111 8
b1110101001100100 '
b1110101001100100 3
b1110101001100100 :
1#
#820000
0#
b0 $
b0 &
b1010000 ;
#825000
b1111000001101111 '
b1111000001101111 3
b1111000001101111 :
b1111011010001101 8
b0 ,
b1010001 *
b1010001 /
1#
#830000
0#
b10000 $
b10000 &
b1010001 ;
#835000
b0 .
b10000 ,
b1010010 *
b1010010 /
b1111110010111111 8
b1111011010001101 '
b1111011010001101 3
b1111011010001101 :
1#
#840000
0#
b100000 $
b100000 &
b1010010 ;
#845000
b1111110010111111 '
b1111110010111111 3
b1111110010111111 :
b10000001100000100 8
b0 !
b0 -
b100000 ,
b1010011 *
b1010011 /
1#
#850000
0#
b110000 $
b110000 &
b1010011 ;
#855000
b110000 ,
b1010100 *
b1010100 /
b10000100101011101 8
b10000001100000100 '
b10000001100000100 3
b10000001100000100 :
1#
#860000
0#
b1000000 $
b1000000 &
b1010100 ;
#865000
b10000100101011101 '
b10000100101011101 3
b10000100101011101 :
b10000111111001010 8
b1000000 ,
b1010101 *
b1010101 /
1#
#870000
0#
b1010000 $
b1010000 &
b1010101 ;
#875000
b1010000 ,
b1010110 *
b1010110 /
b10001011001001010 8
b10000111111001010 '
b10000111111001010 3
b10000111111001010 :
1#
#880000
0#
b1100000 $
b1100000 &
b1010110 ;
#885000
b10001011001001010 '
b10001011001001010 3
b10001011001001010 :
b10001110011011101 8
b1100000 ,
b1010111 *
b1010111 /
1#
#890000
0#
b1110000 $
b1110000 &
b1010111 ;
#895000
b1110000 ,
b1011000 *
b1011000 /
b10010001110000101 8
b10001110011011101 '
b10001110011011101 3
b10001110011011101 :
1#
#900000
0#
b10000000 $
b10000000 &
b1011000 ;
#905000
b10010001110000101 '
b10010001110000101 3
b10010001110000101 :
b10010101000111111 8
b10000000 ,
b1011001 *
b1011001 /
1#
#910000
0#
b10010000 $
b10010000 &
b1011001 ;
#915000
b11111111 .
b10010000 ,
b1011010 *
b1011010 /
b10011000100001110 8
b10010101000111111 '
b10010101000111111 3
b10010101000111111 :
1#
#920000
0#
b10100000 $
b10100000 &
b1011010 ;
#925000
b10011000100001110 '
b10011000100001110 3
b10011000100001110 :
b10011011111110000 8
b11111111 !
b11111111 -
b10100000 ,
b1011011 *
b1011011 /
1#
#930000
0#
b10110000 $
b10110000 &
b1011011 ;
#935000
b10110000 ,
b1011100 *
b1011100 /
b10011111011100101 8
b10011011111110000 '
b10011011111110000 3
b10011011111110000 :
1#
#940000
0#
b11000000 $
b11000000 &
b1011100 ;
#945000
b10011111011100101 '
b10011111011100101 3
b10011111011100101 :
b10100010111101110 8
b11000000 ,
b1011101 *
b1011101 /
1#
#950000
0#
b11010000 $
b11010000 &
b1011101 ;
#955000
b11010000 ,
b1011110 *
b1011110 /
b10100110100001011 8
b10100010111101110 '
b10100010111101110 3
b10100010111101110 :
1#
#960000
0#
b11100000 $
b11100000 &
b1011110 ;
#965000
b10100110100001011 '
b10100110100001011 3
b10100110100001011 :
b10101010000111011 8
b11100000 ,
b1011111 *
b1011111 /
1#
#970000
0#
b11110000 $
b11110000 &
b1011111 ;
#975000
b11110000 ,
b1100000 *
b1100000 /
b10101101101111111 8
b10101010000111011 '
b10101010000111011 3
b10101010000111011 :
1#
#980000
0#
b0 $
b0 &
b1100000 ;
#985000
b10101101101111111 '
b10101101101111111 3
b10101101101111111 :
b10110001011010110 8
b0 ,
b1100001 *
b1100001 /
1#
#990000
0#
b10000 $
b10000 &
b1100001 ;
#995000
b0 .
b10000 ,
b1100010 *
b1100010 /
b10110101001000001 8
b10110001011010110 '
b10110001011010110 3
b10110001011010110 :
1#
#1000000
0#
b100000 $
b100000 &
b1100010 ;
#1005000
b10110101001000001 '
b10110101001000001 3
b10110101001000001 :
b10111000110111111 8
b0 !
b0 -
b100000 ,
b1100011 *
b1100011 /
1#
#1010000
0#
b110000 $
b110000 &
b1100011 ;
#1015000
b110000 ,
b1100100 *
b1100100 /
b10111100101010001 8
b10111000110111111 '
b10111000110111111 3
b10111000110111111 :
1#
#1020000
0#
b1000000 $
b1000000 &
b1100100 ;
#1025000
b10111100101010001 '
b10111100101010001 3
b10111100101010001 :
b11000000011110111 8
b1000000 ,
b1100101 *
b1100101 /
1#
#1030000
0#
b1010000 $
b1010000 &
b1100101 ;
#1035000
b1010000 ,
b1100110 *
b1100110 /
b11000100010110000 8
b11000000011110111 '
b11000000011110111 3
b11000000011110111 :
1#
#1040000
0#
b1100000 $
b1100000 &
b1100110 ;
#1045000
b11000100010110000 '
b11000100010110000 3
b11000100010110000 :
b11001000001111100 8
b1100000 ,
b1100111 *
b1100111 /
1#
#1050000
0#
b1110000 $
b1110000 &
b1100111 ;
#1055000
b1110000 ,
b1101000 *
b1101000 /
b11001100001011100 8
b11001000001111100 '
b11001000001111100 3
b11001000001111100 :
1#
#1060000
0#
b10000000 $
b10000000 &
b1101000 ;
#1065000
b11001100001011100 '
b11001100001011100 3
b11001100001011100 :
b11010000001001111 8
b10000000 ,
b1101001 *
b1101001 /
1#
#1070000
0#
b10010000 $
b10010000 &
b1101001 ;
#1075000
b11111111 .
b10010000 ,
b1101010 *
b1101010 /
b11010100001010110 8
b11010000001001111 '
b11010000001001111 3
b11010000001001111 :
1#
#1080000
0#
b10100000 $
b10100000 &
b1101010 ;
#1085000
b11010100001010110 '
b11010100001010110 3
b11010100001010110 :
b11011000001110001 8
b11111111 !
b11111111 -
b10100000 ,
b1101011 *
b1101011 /
1#
#1090000
0#
b10110000 $
b10110000 &
b1101011 ;
#1095000
b10110000 ,
b1101100 *
b1101100 /
b11011100010011111 8
b11011000001110001 '
b11011000001110001 3
b11011000001110001 :
1#
#1100000
0#
b11000000 $
b11000000 &
b1101100 ;
#1105000
b11011100010011111 '
b11011100010011111 3
b11011100010011111 :
b11100000011100000 8
b11000000 ,
b1101101 *
b1101101 /
1#
#1110000
0#
b11010000 $
b11010000 &
b1101101 ;
#1115000
b11010000 ,
b1101110 *
b1101110 /
b11100100100110101 8
b11100000011100000 '
b11100000011100000 3
b11100000011100000 :
1#
#1120000
0#
b11100000 $
b11100000 &
b1101110 ;
#1125000
b11100100100110101 '
b11100100100110101 3
b11100100100110101 :
b11101000110011101 8
b11100000 ,
b1101111 *
b1101111 /
1#
#1130000
0#
b11110000 $
b11110000 &
b1101111 ;
#1135000
b11110000 ,
b1110000 *
b1110000 /
b11101101000011001 8
b11101000110011101 '
b11101000110011101 3
b11101000110011101 :
1#
#1140000
0#
b0 $
b0 &
b1110000 ;
#1145000
b11101101000011001 '
b11101101000011001 3
b11101101000011001 :
b11110001010101000 8
b0 ,
b1110001 *
b1110001 /
1#
#1150000
0#
b10000 $
b10000 &
b1110001 ;
#1155000
b0 .
b10000 ,
b1110010 *
b1110010 /
b11110101101001011 8
b11110001010101000 '
b11110001010101000 3
b11110001010101000 :
1#
#1160000
0#
b100000 $
b100000 &
b1110010 ;
#1165000
b11110101101001011 '
b11110101101001011 3
b11110101101001011 :
b11111010000000001 8
b0 !
b0 -
b100000 ,
b1110011 *
b1110011 /
1#
#1170000
0#
b110000 $
b110000 &
b1110011 ;
#1175000
b110000 ,
b1110100 *
b1110100 /
b11111110011001011 8
b11111010000000001 '
b11111010000000001 3
b11111010000000001 :
1#
#1180000
0#
b1000000 $
b1000000 &
b1110100 ;
#1185000
b11111110011001011 '
b11111110011001011 3
b11111110011001011 :
b100000010110101000 8
b1000000 ,
b1110101 *
b1110101 /
1#
#1190000
0#
b1010000 $
b1010000 &
b1110101 ;
#1195000
b1010000 ,
b1110110 *
b1110110 /
b100000111010011000 8
b100000010110101000 '
b100000010110101000 3
b100000010110101000 :
1#
#1200000
0#
b1100000 $
b1100000 &
b1110110 ;
#1205000
b100000111010011000 '
b100000111010011000 3
b100000111010011000 :
b100001011110011100 8
b1100000 ,
b1110111 *
b1110111 /
1#
#1210000
0#
b1110000 $
b1110000 &
b1110111 ;
#1215000
b1110000 ,
b1111000 *
b1111000 /
b100010000010110100 8
b100001011110011100 '
b100001011110011100 3
b100001011110011100 :
1#
#1220000
0#
b10000000 $
b10000000 &
b1111000 ;
#1225000
b100010000010110100 '
b100010000010110100 3
b100010000010110100 :
b100010100111011110 8
b10000000 ,
b1111001 *
b1111001 /
1#
#1230000
0#
b10010000 $
b10010000 &
b1111001 ;
#1235000
b11111110 .
b10010000 ,
b1111010 *
b1111010 /
b100011001100011101 8
b100010100111011110 '
b100010100111011110 3
b100010100111011110 :
1#
#1240000
0#
b10100000 $
b10100000 &
b1111010 ;
#1245000
b100011001100011101 '
b100011001100011101 3
b100011001100011101 :
b100011110001101110 8
b11111110 !
b11111110 -
b11111111 .
b10100000 ,
b1111011 *
b1111011 /
1#
#1250000
0#
b10110000 $
b10110000 &
b1111011 ;
#1255000
b11111111 !
b11111111 -
b10110000 ,
b1111100 *
b1111100 /
b100100010111010011 8
b100011110001101110 '
b100011110001101110 3
b100011110001101110 :
1#
#1260000
0#
b11000000 $
b11000000 &
b1111100 ;
#1265000
b100100010111010011 '
b100100010111010011 3
b100100010111010011 :
b100100111101001100 8
b11000000 ,
b1111101 *
b1111101 /
1#
#1270000
0#
b11010000 $
b11010000 &
b1111101 ;
#1275000
b11010000 ,
b1111110 *
b1111110 /
b100101100011011000 8
b100100111101001100 '
b100100111101001100 3
b100100111101001100 :
1#
#1280000
0#
b11100000 $
b11100000 &
b1111110 ;
#1285000
b100101100011011000 '
b100101100011011000 3
b100101100011011000 :
b100110001001110111 8
b11100000 ,
b1111111 *
b1111111 /
1#
#1290000
0#
b11110000 $
b11110000 &
b1111111 ;
#1295000
b11110000 ,
b10000000 *
b10000000 /
b100110110000101001 8
b100110001001110111 '
b100110001001110111 3
b100110001001110111 :
1#
#1300000
0#
b0 $
b0 &
b10000000 ;
#1305000
b100110110000101001 '
b100110110000101001 3
b100110110000101001 :
b100111010111101111 8
b0 ,
b10000001 *
b10000001 /
1#
#1310000
0#
b10000 $
b10000 &
b10000001 ;
#1315000
b0 .
b10000 ,
b10000010 *
b10000010 /
b100111111111001001 8
b100111010111101111 '
b100111010111101111 3
b100111010111101111 :
1#
#1320000
0#
b100000 $
b100000 &
b10000010 ;
#1325000
b100111111111001001 '
b100111111111001001 3
b100111111111001001 :
b101000100110110101 8
b0 !
b0 -
b100000 ,
b10000011 *
b10000011 /
1#
#1330000
0#
b110000 $
b110000 &
b10000011 ;
#1335000
b110000 ,
b10000100 *
b10000100 /
b101001001110110101 8
b101000100110110101 '
b101000100110110101 3
b101000100110110101 :
1#
#1340000
0#
b1000000 $
b1000000 &
b10000100 ;
#1345000
b101001001110110101 '
b101001001110110101 3
b101001001110110101 :
b101001110111001001 8
b1000000 ,
b10000101 *
b10000101 /
1#
#1350000
0#
b1010000 $
b1010000 &
b10000101 ;
#1355000
b1010000 ,
b10000110 *
b10000110 /
b101010011111101111 8
b101001110111001001 '
b101001110111001001 3
b101001110111001001 :
1#
#1360000
0#
b1100000 $
b1100000 &
b10000110 ;
#1365000
b101010011111101111 '
b101010011111101111 3
b101010011111101111 :
b101011001000101001 8
b1100000 ,
b10000111 *
b10000111 /
1#
#1370000
0#
b1110000 $
b1110000 &
b10000111 ;
#1375000
b1110000 ,
b10001000 *
b10001000 /
b101011110001110111 8
b101011001000101001 '
b101011001000101001 3
b101011001000101001 :
1#
#1380000
0#
b10000000 $
b10000000 &
b10001000 ;
#1385000
b101011110001110111 '
b101011110001110111 3
b101011110001110111 :
b101100011011011000 8
b1 .
b10000000 ,
b10001001 *
b10001001 /
1#
#1390000
0#
b10010000 $
b10010000 &
b10001001 ;
#1395000
b1 !
b1 -
b11111110 .
b10010000 ,
b10001010 *
b10001010 /
b101101000101001100 8
b101100011011011000 '
b101100011011011000 3
b101100011011011000 :
1#
#1400000
0#
b10100000 $
b10100000 &
b10001010 ;
#1405000
b101101000101001100 '
b101101000101001100 3
b101101000101001100 :
b101101101111010011 8
b11111110 !
b11111110 -
b10100000 ,
b10001011 *
b10001011 /
1#
#1410000
0#
b10110000 $
b10110000 &
b10001011 ;
#1415000
b10110000 ,
b10001100 *
b10001100 /
b101110011001101110 8
b101101101111010011 '
b101101101111010011 3
b101101101111010011 :
1#
#1420000
0#
b11000000 $
b11000000 &
b10001100 ;
#1425000
b101110011001101110 '
b101110011001101110 3
b101110011001101110 :
b101111000100011100 8
b11111111 .
b11000000 ,
b10001101 *
b10001101 /
1#
#1430000
0#
b11010000 $
b11010000 &
b10001101 ;
#1435000
b11111111 !
b11111111 -
b11010000 ,
b10001110 *
b10001110 /
b101111101111011101 8
b101111000100011100 '
b101111000100011100 3
b101111000100011100 :
1#
#1440000
0#
b11100000 $
b11100000 &
b10001110 ;
#1445000
b101111101111011101 '
b101111101111011101 3
b101111101111011101 :
b110000011010110010 8
b11100000 ,
b10001111 *
b10001111 /
1#
#1450000
0#
b11110000 $
b11110000 &
b10001111 ;
#1455000
b11110000 ,
b10010000 *
b10010000 /
b110001000110011001 8
b110000011010110010 '
b110000011010110010 3
b110000011010110010 :
1#
